C:\GitProyect\atlas-api\src\test\java\com\isban\atlas\service\api\techgroup\controller\TechnicalGroupApiControllerTest.java
C:\GitProyect\atlas-api\src\test\java\com\isban\atlas\service\repository\rochade\TechnicalGroupRochadeRepositoryTest.java
C:\GitProyect\atlas-api\src\test\java\com\isban\atlas\service\repository\jpa\SocietyRepositoryTest.java
